说明：此文件包含所有修改NV Item的记录；包括制作efs image文件、default mbn、定制mbn时对NV的修改；
       NV Item修改可以修改efs_image文件或mcfg_sw_gen_Default.xml或其它xml文件和Excel文件

V001
        bug 258936 - EFS/MBN 制作
        AA1 EFS文件制作


V002 
       bug 263133 - 更新QCN
       